^C:\Users\anton\source\repos\Homework_13.4\Homework_13.4.vcxproj
C:\Users\anton\source\repos\Homework_13.4\Release\Homework_13.4.ipdb
C:\Users\anton\source\repos\Homework_13.4\Release\Homework_13.4.iobj
^C:\Users\anton\source\repos\Homework_13.4\Homework_13.4.vcxproj
C:\Users\anton\source\repos\Homework_13.4\Release\Homework_13.4.ipdb
C:\Users\anton\source\repos\Homework_13.4\Release\Homework_13.4.iobj
^C:\Users\anton\source\repos\Homework_13.4\Homework_13.4.vcxproj
C:\Users\anton\source\repos\Homework_13.4\Release\Homework_13.4.ipdb
C:\Users\anton\source\repos\Homework_13.4\Release\Homework_13.4.iobj
^C:\Users\anton\source\repos\Homework_13.4\Homework_13.4.vcxproj
C:\Users\anton\source\repos\Homework_13.4\Release\Homework_13.4.ipdb
C:\Users\anton\source\repos\Homework_13.4\Release\Homework_13.4.iobj
^C:\Users\anton\source\repos\Homework_13.4\Homework_13.4.vcxproj
C:\Users\anton\source\repos\Homework_13.4\Release\Homework_13.4.ipdb
C:\Users\anton\source\repos\Homework_13.4\Release\Homework_13.4.iobj
^C:\Users\anton\source\repos\Homework_13.4\Homework_13.4.vcxproj
C:\Users\anton\source\repos\Homework_13.4\Release\Homework_13.4.ipdb
C:\Users\anton\source\repos\Homework_13.4\Release\Homework_13.4.iobj
^C:\Users\anton\source\repos\Homework_13.4\Homework_13.4.vcxproj
C:\Users\anton\source\repos\Homework_13.4\Release\Homework_13.4.ipdb
C:\Users\anton\source\repos\Homework_13.4\Release\Homework_13.4.iobj
^C:\Users\anton\source\repos\Homework_13.4\Homework_13.4.vcxproj
C:\Users\anton\source\repos\Homework_13.4\Release\Homework_13.4.ipdb
C:\Users\anton\source\repos\Homework_13.4\Release\Homework_13.4.iobj
^C:\Users\anton\source\repos\Homework_13.4\Homework_13.4.vcxproj
C:\Users\anton\source\repos\Homework_13.4\Release\Homework_13.4.ipdb
C:\Users\anton\source\repos\Homework_13.4\Release\Homework_13.4.iobj
^C:\Users\anton\source\repos\Homework_13.4\Homework_13.4.vcxproj
C:\Users\anton\source\repos\Homework_13.4\Release\Homework_13.4.ipdb
C:\Users\anton\source\repos\Homework_13.4\Release\Homework_13.4.iobj
^C:\Users\anton\source\repos\Homework_13.4\Homework_13.4.vcxproj
C:\Users\anton\source\repos\Homework_13.4\Release\Homework_13.4.ipdb
C:\Users\anton\source\repos\Homework_13.4\Release\Homework_13.4.iobj
^C:\Users\anton\source\repos\Homework_13.4\Homework_13.4.vcxproj
C:\Users\anton\source\repos\Homework_13.4\Release\Homework_13.4.ipdb
C:\Users\anton\source\repos\Homework_13.4\Release\Homework_13.4.iobj
^C:\Users\anton\source\repos\Homework_13.4\Homework_13.4.vcxproj
C:\Users\anton\source\repos\Homework_13.4\Release\Homework_13.4.ipdb
C:\Users\anton\source\repos\Homework_13.4\Release\Homework_13.4.iobj
^C:\Users\anton\source\repos\Homework_13.4\Homework_13.4.vcxproj
C:\Users\anton\source\repos\Homework_13.4\Release\Homework_13.4.ipdb
C:\Users\anton\source\repos\Homework_13.4\Release\Homework_13.4.iobj
^C:\Users\anton\source\repos\Homework_13.4\Homework_13.4.vcxproj
C:\Users\anton\source\repos\Homework_13.4\Release\Homework_13.4.ipdb
C:\Users\anton\source\repos\Homework_13.4\Release\Homework_13.4.iobj
^C:\Users\anton\source\repos\Homework_13.4\Homework_13.4.vcxproj
C:\Users\anton\source\repos\Homework_13.4\Release\Homework_13.4.ipdb
C:\Users\anton\source\repos\Homework_13.4\Release\Homework_13.4.iobj
^C:\Users\anton\source\repos\Homework_13.4\Homework_13.4.vcxproj
C:\Users\anton\source\repos\Homework_13.4\Release\Homework_13.4.ipdb
C:\Users\anton\source\repos\Homework_13.4\Release\Homework_13.4.iobj
^C:\Users\anton\source\repos\Homework_13.4\Homework_13.4.vcxproj
C:\Users\anton\source\repos\Homework_13.4\Release\Homework_13.4.ipdb
C:\Users\anton\source\repos\Homework_13.4\Release\Homework_13.4.iobj
^C:\Users\anton\source\repos\Homework_13.4\Homework_13.4.vcxproj
C:\Users\anton\source\repos\Homework_13.4\Release\Homework_13.4.ipdb
C:\Users\anton\source\repos\Homework_13.4\Release\Homework_13.4.iobj
^C:\Users\anton\source\repos\Homework_13.4\Homework_13.4.vcxproj
C:\Users\anton\source\repos\Homework_13.4\Release\Homework_13.4.ipdb
C:\Users\anton\source\repos\Homework_13.4\Release\Homework_13.4.iobj
^C:\Users\anton\source\repos\Homework_13.4\Homework_13.4.vcxproj
C:\Users\anton\source\repos\Homework_13.4\Release\Homework_13.4.ipdb
C:\Users\anton\source\repos\Homework_13.4\Release\Homework_13.4.iobj
^C:\Users\anton\source\repos\Homework_13.4\Homework_13.4.vcxproj
C:\Users\anton\source\repos\Homework_13.4\Release\Homework_13.4.ipdb
C:\Users\anton\source\repos\Homework_13.4\Release\Homework_13.4.iobj
^C:\Users\anton\source\repos\Homework_13.4\Homework_13.4.vcxproj
C:\Users\anton\source\repos\Homework_13.4\Release\Homework_13.4.ipdb
C:\Users\anton\source\repos\Homework_13.4\Release\Homework_13.4.iobj
^C:\Users\anton\source\repos\Homework_13.4\Homework_13.4.vcxproj
C:\Users\anton\source\repos\Homework_13.4\Release\Homework_13.4.ipdb
C:\Users\anton\source\repos\Homework_13.4\Release\Homework_13.4.iobj
^C:\Users\anton\source\repos\Homework_13.4\Homework_13.4.vcxproj
C:\Users\anton\source\repos\Homework_13.4\Release\Homework_13.4.ipdb
C:\Users\anton\source\repos\Homework_13.4\Release\Homework_13.4.iobj
^C:\Users\anton\source\repos\Homework_13.4\Homework_13.4.vcxproj
C:\Users\anton\source\repos\Homework_13.4\Release\Homework_13.4.ipdb
C:\Users\anton\source\repos\Homework_13.4\Release\Homework_13.4.iobj
^C:\Users\anton\source\repos\Homework_13.4\Homework_13.4.vcxproj
C:\Users\anton\source\repos\Homework_13.4\Release\Homework_13.4.ipdb
C:\Users\anton\source\repos\Homework_13.4\Release\Homework_13.4.iobj
^C:\Users\anton\source\repos\Homework_13.4\Homework_13.4.vcxproj
C:\Users\anton\source\repos\Homework_13.4\Release\Homework_13.4.ipdb
C:\Users\anton\source\repos\Homework_13.4\Release\Homework_13.4.iobj
^C:\Users\anton\source\repos\Homework_13.4\Homework_13.4.vcxproj
C:\Users\anton\source\repos\Homework_13.4\Release\Homework_13.4.ipdb
C:\Users\anton\source\repos\Homework_13.4\Release\Homework_13.4.iobj
^C:\Users\anton\source\repos\Homework_13.4\Homework_13.4.vcxproj
C:\Users\anton\source\repos\Homework_13.4\Release\Homework_13.4.ipdb
C:\Users\anton\source\repos\Homework_13.4\Release\Homework_13.4.iobj
^C:\Users\anton\source\repos\Homework_13.4\Homework_13.4.vcxproj
C:\Users\anton\source\repos\Homework_13.4\Release\Homework_13.4.ipdb
C:\Users\anton\source\repos\Homework_13.4\Release\Homework_13.4.iobj
^C:\Users\anton\source\repos\Homework_13.4\Homework_13.4.vcxproj
C:\Users\anton\source\repos\Homework_13.4\Release\Homework_13.4.ipdb
C:\Users\anton\source\repos\Homework_13.4\Release\Homework_13.4.iobj
^C:\Users\anton\source\repos\Homework_13.4\Homework_13.4.vcxproj
C:\Users\anton\source\repos\Homework_13.4\Release\Homework_13.4.ipdb
C:\Users\anton\source\repos\Homework_13.4\Release\Homework_13.4.iobj
^C:\Users\anton\source\repos\Homework_13.4\Homework_13.4.vcxproj
C:\Users\anton\source\repos\Homework_13.4\Release\Homework_13.4.ipdb
C:\Users\anton\source\repos\Homework_13.4\Release\Homework_13.4.iobj
^C:\Users\anton\source\repos\Homework_13.4\Homework_13.4.vcxproj
C:\Users\anton\source\repos\Homework_13.4\Release\Homework_13.4.ipdb
C:\Users\anton\source\repos\Homework_13.4\Release\Homework_13.4.iobj
^C:\Users\anton\source\repos\Homework_13.4\Homework_13.4.vcxproj
C:\Users\anton\source\repos\Homework_13.4\Release\Homework_13.4.ipdb
C:\Users\anton\source\repos\Homework_13.4\Release\Homework_13.4.iobj
^C:\Users\anton\source\repos\Homework_13.4\Homework_13.4.vcxproj
C:\Users\anton\source\repos\Homework_13.4\Release\Homework_13.4.ipdb
C:\Users\anton\source\repos\Homework_13.4\Release\Homework_13.4.iobj
^C:\Users\anton\source\repos\Homework_13.4\Homework_13.4.vcxproj
C:\Users\anton\source\repos\Homework_13.4\Release\Homework_13.4.ipdb
C:\Users\anton\source\repos\Homework_13.4\Release\Homework_13.4.iobj
^C:\Users\anton\source\repos\Homework_13.4\Homework_13.4.vcxproj
C:\Users\anton\source\repos\Homework_13.4\Release\Homework_13.4.ipdb
C:\Users\anton\source\repos\Homework_13.4\Release\Homework_13.4.iobj
^C:\Users\anton\source\repos\Homework_13.4\Homework_13.4.vcxproj
C:\Users\anton\source\repos\Homework_13.4\Release\Homework_13.4.ipdb
C:\Users\anton\source\repos\Homework_13.4\Release\Homework_13.4.iobj
^C:\Users\anton\source\repos\Homework_13.4\Homework_13.4.vcxproj
C:\Users\anton\source\repos\Homework_13.4\Release\Homework_13.4.ipdb
C:\Users\anton\source\repos\Homework_13.4\Release\Homework_13.4.iobj
^C:\Users\anton\source\repos\Homework_13.4\Homework_13.4.vcxproj
C:\Users\anton\source\repos\Homework_13.4\Release\Homework_13.4.ipdb
C:\Users\anton\source\repos\Homework_13.4\Release\Homework_13.4.iobj
^C:\Users\anton\source\repos\Homework_13.4\Homework_13.4.vcxproj
C:\Users\anton\source\repos\Homework_13.4\Release\Homework_13.4.ipdb
C:\Users\anton\source\repos\Homework_13.4\Release\Homework_13.4.iobj
^C:\Users\anton\source\repos\Homework_13.4\Homework_13.4.vcxproj
C:\Users\anton\source\repos\Homework_13.4\Release\Homework_13.4.ipdb
C:\Users\anton\source\repos\Homework_13.4\Release\Homework_13.4.iobj
^C:\Users\anton\source\repos\Homework_13.4\Homework_13.4.vcxproj
C:\Users\anton\source\repos\Homework_13.4\Release\Homework_13.4.ipdb
C:\Users\anton\source\repos\Homework_13.4\Release\Homework_13.4.iobj
^C:\Users\anton\source\repos\Homework_13.4\Homework_13.4.vcxproj
C:\Users\anton\source\repos\Homework_13.4\Release\Homework_13.4.ipdb
C:\Users\anton\source\repos\Homework_13.4\Release\Homework_13.4.iobj
^C:\Users\anton\source\repos\Homework_13.4\Homework_13.4.vcxproj
C:\Users\anton\source\repos\Homework_13.4\Release\Homework_13.4.ipdb
C:\Users\anton\source\repos\Homework_13.4\Release\Homework_13.4.iobj
^C:\Users\anton\source\repos\Homework_13.4\Homework_13.4.vcxproj
C:\Users\anton\source\repos\Homework_13.4\Release\Homework_13.4.ipdb
C:\Users\anton\source\repos\Homework_13.4\Release\Homework_13.4.iobj
^C:\Users\anton\source\repos\Homework_13.4\Homework_13.4.vcxproj
C:\Users\anton\source\repos\Homework_13.4\Release\Homework_13.4.ipdb
C:\Users\anton\source\repos\Homework_13.4\Release\Homework_13.4.iobj
^C:\Users\anton\source\repos\Homework_13.4\Homework_13.4.vcxproj
C:\Users\anton\source\repos\Homework_13.4\Release\Homework_13.4.ipdb
C:\Users\anton\source\repos\Homework_13.4\Release\Homework_13.4.iobj
^C:\Users\anton\source\repos\Homework_13.4\Homework_13.4.vcxproj
C:\Users\anton\source\repos\Homework_13.4\Release\Homework_13.4.ipdb
C:\Users\anton\source\repos\Homework_13.4\Release\Homework_13.4.iobj
^C:\Users\anton\source\repos\Homework_13.4\Homework_13.4.vcxproj
C:\Users\anton\source\repos\Homework_13.4\Release\Homework_13.4.ipdb
C:\Users\anton\source\repos\Homework_13.4\Release\Homework_13.4.iobj
^C:\Users\anton\source\repos\Homework_13.4\Homework_13.4.vcxproj
C:\Users\anton\source\repos\Homework_13.4\Release\Homework_13.4.ipdb
C:\Users\anton\source\repos\Homework_13.4\Release\Homework_13.4.iobj
^C:\Users\anton\source\repos\Homework_13.4\Homework_13.4.vcxproj
C:\Users\anton\source\repos\Homework_13.4\Release\Homework_13.4.ipdb
C:\Users\anton\source\repos\Homework_13.4\Release\Homework_13.4.iobj
^C:\Users\anton\source\repos\Homework_13.4\Homework_13.4.vcxproj
C:\Users\anton\source\repos\Homework_13.4\Release\Homework_13.4.ipdb
C:\Users\anton\source\repos\Homework_13.4\Release\Homework_13.4.iobj
^C:\Users\anton\source\repos\Homework_13.4\Homework_13.4.vcxproj
C:\Users\anton\source\repos\Homework_13.4\Release\Homework_13.4.ipdb
C:\Users\anton\source\repos\Homework_13.4\Release\Homework_13.4.iobj
^C:\Users\anton\source\repos\Homework_13.4\Homework_13.4.vcxproj
C:\Users\anton\source\repos\Homework_13.4\Release\Homework_13.4.ipdb
C:\Users\anton\source\repos\Homework_13.4\Release\Homework_13.4.iobj
^C:\Users\anton\source\repos\Homework_13.4\Homework_13.4.vcxproj
C:\Users\anton\source\repos\Homework_13.4\Release\Homework_13.4.ipdb
C:\Users\anton\source\repos\Homework_13.4\Release\Homework_13.4.iobj
^C:\Users\anton\source\repos\Homework_13.4\Homework_13.4.vcxproj
C:\Users\anton\source\repos\Homework_13.4\Release\Homework_13.4.ipdb
C:\Users\anton\source\repos\Homework_13.4\Release\Homework_13.4.iobj
^C:\Users\anton\source\repos\Homework_13.4\Homework_13.4.vcxproj
C:\Users\anton\source\repos\Homework_13.4\Release\Homework_13.4.ipdb
C:\Users\anton\source\repos\Homework_13.4\Release\Homework_13.4.iobj
^C:\Users\anton\source\repos\Homework_13.4\Homework_13.4.vcxproj
C:\Users\anton\source\repos\Homework_13.4\Release\Homework_13.4.ipdb
C:\Users\anton\source\repos\Homework_13.4\Release\Homework_13.4.iobj
^C:\Users\anton\source\repos\Homework_13.4\Homework_13.4.vcxproj
C:\Users\anton\source\repos\Homework_13.4\Release\Homework_13.4.ipdb
C:\Users\anton\source\repos\Homework_13.4\Release\Homework_13.4.iobj
^C:\Users\anton\source\repos\Homework_13.4\Homework_13.4.vcxproj
C:\Users\anton\source\repos\Homework_13.4\Release\Homework_13.4.ipdb
C:\Users\anton\source\repos\Homework_13.4\Release\Homework_13.4.iobj
^C:\Users\anton\source\repos\Homework_13.4\Homework_13.4.vcxproj
C:\Users\anton\source\repos\Homework_13.4\Release\Homework_13.4.ipdb
C:\Users\anton\source\repos\Homework_13.4\Release\Homework_13.4.iobj
^C:\Users\anton\source\repos\Homework_13.4\Homework_13.4.vcxproj
C:\Users\anton\source\repos\Homework_13.4\Release\Homework_13.4.ipdb
C:\Users\anton\source\repos\Homework_13.4\Release\Homework_13.4.iobj
^C:\Users\anton\source\repos\Homework_13.4\Homework_13.4.vcxproj
C:\Users\anton\source\repos\Homework_13.4\Release\Homework_13.4.ipdb
C:\Users\anton\source\repos\Homework_13.4\Release\Homework_13.4.iobj
^C:\Users\anton\source\repos\Homework_13.4\Homework_13.4.vcxproj
C:\Users\anton\source\repos\Homework_13.4\Release\Homework_13.4.ipdb
C:\Users\anton\source\repos\Homework_13.4\Release\Homework_13.4.iobj
^C:\Users\anton\source\repos\Homework_13.4\Homework_13.4.vcxproj
C:\Users\anton\source\repos\Homework_13.4\Release\Homework_13.4.ipdb
C:\Users\anton\source\repos\Homework_13.4\Release\Homework_13.4.iobj
^C:\Users\anton\source\repos\Homework_13.4\Homework_13.4.vcxproj
C:\Users\anton\source\repos\Homework_13.4\Release\Homework_13.4.ipdb
C:\Users\anton\source\repos\Homework_13.4\Release\Homework_13.4.iobj
^C:\Users\anton\source\repos\Homework_13.4\Homework_13.4.vcxproj
C:\Users\anton\source\repos\Homework_13.4\Release\Homework_13.4.ipdb
C:\Users\anton\source\repos\Homework_13.4\Release\Homework_13.4.iobj
^C:\Users\anton\source\repos\Homework_13.4\Homework_13.4.vcxproj
C:\Users\anton\source\repos\Homework_13.4\Release\Homework_13.4.ipdb
C:\Users\anton\source\repos\Homework_13.4\Release\Homework_13.4.iobj
^C:\Users\anton\source\repos\Homework_13.4\Homework_13.4.vcxproj
C:\Users\anton\source\repos\Homework_13.4\Release\Homework_13.4.ipdb
C:\Users\anton\source\repos\Homework_13.4\Release\Homework_13.4.iobj
^C:\Users\anton\source\repos\Homework_13.4\Homework_13.4.vcxproj
C:\Users\anton\source\repos\Homework_13.4\Release\Homework_13.4.ipdb
C:\Users\anton\source\repos\Homework_13.4\Release\Homework_13.4.iobj
^C:\Users\anton\source\repos\Homework_13.4\Homework_13.4.vcxproj
C:\Users\anton\source\repos\Homework_13.4\Release\Homework_13.4.ipdb
C:\Users\anton\source\repos\Homework_13.4\Release\Homework_13.4.iobj
^C:\Users\anton\source\repos\Homework_13.4\Homework_13.4.vcxproj
C:\Users\anton\source\repos\Homework_13.4\Release\Homework_13.4.ipdb
C:\Users\anton\source\repos\Homework_13.4\Release\Homework_13.4.iobj
^C:\Users\anton\source\repos\Homework_13.4\Homework_13.4.vcxproj
C:\Users\anton\source\repos\Homework_13.4\Release\Homework_13.4.ipdb
C:\Users\anton\source\repos\Homework_13.4\Release\Homework_13.4.iobj
^C:\Users\anton\source\repos\Homework_13.4\Homework_13.4.vcxproj
C:\Users\anton\source\repos\Homework_13.4\Release\Homework_13.4.ipdb
C:\Users\anton\source\repos\Homework_13.4\Release\Homework_13.4.iobj
^C:\Users\anton\source\repos\Homework_13.4\Homework_13.4.vcxproj
C:\Users\anton\source\repos\Homework_13.4\Release\Homework_13.4.ipdb
C:\Users\anton\source\repos\Homework_13.4\Release\Homework_13.4.iobj
^C:\Users\anton\source\repos\Homework_13.4\Homework_13.4.vcxproj
C:\Users\anton\source\repos\Homework_13.4\Release\Homework_13.4.ipdb
C:\Users\anton\source\repos\Homework_13.4\Release\Homework_13.4.iobj
^C:\Users\anton\source\repos\Homework_13.4\Homework_13.4.vcxproj
C:\Users\anton\source\repos\Homework_13.4\Release\Homework_13.4.ipdb
C:\Users\anton\source\repos\Homework_13.4\Release\Homework_13.4.iobj
^C:\Users\anton\source\repos\Homework_13.4\Homework_13.4.vcxproj
C:\Users\anton\source\repos\Homework_13.4\Release\Homework_13.4.ipdb
C:\Users\anton\source\repos\Homework_13.4\Release\Homework_13.4.iobj
